<svg width="32" height="40" viewBox="0 0 32 40" fill="none" xmlns="http://www.w3.org/2000/svg">
<path d="M0.993468 6.90901C0.901222 6.44514 1.25611 6.01273 1.72906 6.01273H30.2709C30.7439 6.01273 31.0987 6.44514 31.0065 6.90901L24.5957 39.1463C24.5259 39.4972 24.2179 39.75 23.8601 39.75H8.13985C7.78203 39.75 7.47404 39.4972 7.40425 39.1463L0.993468 6.90901Z" fill="#EF6898" stroke="#363636" stroke-width="0.5"/>
<path d="M21.7872 39.322L27.7993 6.44069H30.6383L24.2922 39.322H21.7872Z" fill="#EE4380"/>
<path d="M8.34045 39.322L1.87237 6.44069H1.36173L7.82982 39.322H8.34045Z" fill="white"/>
<path d="M1.19484 15.7387C1.09093 15.2704 1.44733 14.8262 1.92704 14.8262H29.7325C30.2122 14.8262 30.5686 15.2704 30.4647 15.7387L27.6744 28.315C27.5983 28.6582 27.2938 28.9025 26.9422 28.9025H4.71734C4.36572 28.9025 4.0613 28.6582 3.98514 28.315L1.19484 15.7387Z" fill="white" stroke="#363636" stroke-width="0.5"/>
<path d="M1.51404 4.83475L4.86908 0.25H27.131L30.486 4.83475H1.51404Z" fill="white" stroke="#363636" stroke-width="0.5"/>
<rect x="0.25" y="4.65678" width="31.5" height="1.5339" rx="0.75" fill="white" stroke="#363636" stroke-width="0.5"/>
</svg>
