<svg width="78" height="67" viewBox="0 0 78 67" fill="none" xmlns="http://www.w3.org/2000/svg">
<mask id="path-1-outside-1" maskUnits="userSpaceOnUse" x="0" y="0" width="78" height="67" fill="black">
<rect fill="white" width="78" height="67"/>
<path d="M56.7323 1C53.4731 1 50.0277 2.12069 46.396 4.36207C43.8818 5.85632 41.4141 7.77083 38.993 10.1056C36.5718 7.77083 34.1042 5.85632 31.5899 4.36207C27.9582 2.12069 24.5128 1 21.2536 1C14.9214 1 9.93952 2.77443 6.30784 6.32328C2.76928 9.77874 1 14.5884 1 20.7522C1 25.0481 2.58304 29.4842 5.74912 34.0603C7.42528 36.4885 9.05488 38.403 10.6379 39.8039L36.7581 65.1595C37.4099 65.7198 38.1549 66 38.993 66C39.831 66 40.576 65.7198 41.2278 65.1595L67.348 39.8039C69.3035 37.9361 71.0262 35.8815 72.5162 33.6401C75.496 29.2507 76.9859 24.9547 76.9859 20.7522C76.9859 14.5884 75.1701 9.77874 71.5384 6.32328C67.9998 2.77443 63.0645 1 56.7323 1Z"/>
</mask>
<path d="M56.7323 1C53.4731 1 50.0277 2.12069 46.396 4.36207C43.8818 5.85632 41.4141 7.77083 38.993 10.1056C36.5718 7.77083 34.1042 5.85632 31.5899 4.36207C27.9582 2.12069 24.5128 1 21.2536 1C14.9214 1 9.93952 2.77443 6.30784 6.32328C2.76928 9.77874 1 14.5884 1 20.7522C1 25.0481 2.58304 29.4842 5.74912 34.0603C7.42528 36.4885 9.05488 38.403 10.6379 39.8039L36.7581 65.1595C37.4099 65.7198 38.1549 66 38.993 66C39.831 66 40.576 65.7198 41.2278 65.1595L67.348 39.8039C69.3035 37.9361 71.0262 35.8815 72.5162 33.6401C75.496 29.2507 76.9859 24.9547 76.9859 20.7522C76.9859 14.5884 75.1701 9.77874 71.5384 6.32328C67.9998 2.77443 63.0645 1 56.7323 1Z" fill="#EF6898"/>
<path d="M46.396 4.36207L46.6515 4.79195L46.6586 4.78756L46.396 4.36207ZM67.348 39.8039L67.0026 39.4423L66.9997 39.4451L67.348 39.8039ZM72.5162 33.6401L72.1025 33.3592L72.0998 33.3633L72.5162 33.6401ZM71.5384 6.32328L71.1842 6.67644L71.1937 6.68551L71.5384 6.32328ZM56.7323 0.5C53.3558 0.5 49.8201 1.66124 46.1334 3.93658L46.6586 4.78756C50.2353 2.58014 53.5904 1.5 56.7323 1.5V0.5ZM46.1405 3.93225C43.5887 5.44887 41.0907 7.38807 38.6459 9.74569L39.34 10.4655C41.7375 8.1536 44.1749 6.26377 46.6514 4.79189L46.1405 3.93225ZM41.5761 65.5182L67.6963 40.1626L66.9997 39.4451L40.8796 64.8007L41.5761 65.5182ZM67.6934 40.1654C69.6755 38.2722 71.4221 36.1892 72.9326 33.9169L72.0998 33.3633C70.6304 35.5737 68.9315 37.5999 67.0026 39.4423L67.6934 40.1654ZM72.9298 33.9209C75.9512 29.4704 77.4859 25.0783 77.4859 20.7522H76.4859C76.4859 24.8312 75.0408 29.031 72.1025 33.3592L72.9298 33.9209ZM77.4859 20.7522C77.4859 14.4851 75.6359 9.53181 71.883 5.96104L71.1937 6.68551C74.7042 10.0257 76.4859 14.6916 76.4859 20.7522H77.4859ZM71.8925 5.97024C68.2369 2.30407 63.1605 0.5 56.7323 0.5V1.5C62.9685 1.5 67.7627 3.24478 71.1843 6.67632L71.8925 5.97024ZM46.396 4.36207L46.9069 5.22171L46.9141 5.21744L46.9212 5.21305L46.396 4.36207ZM38.993 10.1056L38.2988 10.8254L38.993 11.4948L39.6871 10.8254L38.993 10.1056ZM31.5899 4.36207L31.0647 5.21305L31.0718 5.21744L31.079 5.22171L31.5899 4.36207ZM6.30784 6.32328L7.0065 7.03873L7.00674 7.03849L6.30784 6.32328ZM5.74912 34.0603L6.57208 33.4923L6.57148 33.4914L5.74912 34.0603ZM10.6379 39.8039L11.3344 39.0863L11.3179 39.0703L11.3006 39.055L10.6379 39.8039ZM36.7581 65.1595L36.0616 65.877L36.0833 65.8981L36.1062 65.9178L36.7581 65.1595ZM41.2278 65.1595L41.8797 65.9178L41.9027 65.8981L41.9244 65.877L41.2278 65.1595ZM67.348 39.8039L66.6573 39.0807L66.6515 39.0863L67.348 39.8039ZM72.5162 33.6401L71.6888 33.0784L71.6834 33.0865L72.5162 33.6401ZM71.5384 6.32328L70.8303 7.02936L70.8396 7.03867L70.8491 7.04774L71.5384 6.32328ZM56.7323 0C53.2385 0 49.6125 1.20179 45.8708 3.51109L46.9212 5.21305C50.4428 3.03959 53.7077 2 56.7323 2V0ZM45.8851 3.50243C43.2956 5.04142 40.7673 7.0053 38.2988 9.38578L39.6871 10.8254C42.0608 8.53637 44.4679 6.67122 46.9069 5.22171L45.8851 3.50243ZM39.6871 9.38578C37.2186 7.0053 34.6903 5.04142 32.1008 3.50243L31.079 5.22171C33.518 6.67122 35.9251 8.53637 38.2988 10.8254L39.6871 9.38578ZM32.1151 3.51109C28.3734 1.20179 24.7474 0 21.2536 0V2C24.2782 2 27.5431 3.03959 31.0647 5.21305L32.1151 3.51109ZM21.2536 0C14.7282 0 9.471 1.83408 5.60894 5.60806L7.00674 7.03849C10.408 3.71477 15.1147 2 21.2536 2V0ZM5.60918 5.60782C1.8328 9.29552 0 14.3894 0 20.7522H2C2 14.7873 3.70576 10.262 7.0065 7.03873L5.60918 5.60782ZM0 20.7522C0 25.3039 1.67895 29.935 4.92676 34.6293L6.57148 33.4914C3.48712 29.0333 2 24.7924 2 20.7522H0ZM4.92616 34.6284C6.63163 37.0991 8.3131 39.0819 9.97522 40.5528L11.3006 39.055C9.79666 37.7241 8.21893 35.8779 6.57208 33.4923L4.92616 34.6284ZM9.94139 40.5214L36.0616 65.877L37.4546 64.442L11.3344 39.0863L9.94139 40.5214ZM36.1062 65.9178C36.9343 66.6297 37.909 67 38.993 67V65C38.4007 65 37.8855 64.81 37.41 64.4012L36.1062 65.9178ZM38.993 67C40.0769 67 41.0516 66.6297 41.8797 65.9178L40.576 64.4012C40.1004 64.81 39.5852 65 38.993 65V67ZM41.9244 65.877L68.0445 40.5214L66.6515 39.0863L40.5313 64.442L41.9244 65.877ZM68.0387 40.527C70.0475 38.6084 71.8179 36.4969 73.3489 34.1937L71.6834 33.0865C70.2346 35.266 68.5596 37.2638 66.6573 39.0807L68.0387 40.527ZM73.3435 34.2018C76.4063 29.6902 77.9859 25.2018 77.9859 20.7522H75.9859C75.9859 24.7076 74.5857 28.8113 71.6888 33.0784L73.3435 34.2018ZM77.9859 20.7522C77.9859 14.3818 76.1018 9.28488 72.2277 5.59881L70.8491 7.04774C74.2384 10.2726 75.9859 14.7949 75.9859 20.7522H77.9859ZM72.2465 5.6172C68.474 1.83371 63.2565 0 56.7323 0V2C62.8725 2 67.5257 3.71514 70.8303 7.02936L72.2465 5.6172Z" fill="black" mask="url(#path-1-outside-1)"/>
<path fill-rule="evenodd" clip-rule="evenodd" d="M50.3249 2.34482C52.5352 1.44827 54.671 1 56.7323 1C63.0645 1 67.9999 2.77441 71.5384 6.32327C75.1701 9.77875 76.9859 14.5883 76.9859 20.7522C76.9859 24.9547 75.496 29.2507 72.5162 33.6401C71.0263 35.8815 69.3035 37.936 67.348 39.8039L41.2279 65.1595C40.576 65.7198 39.831 66 38.993 66C38.1549 66 37.4099 65.7198 36.7581 65.1595L10.6379 39.8039C9.0549 38.403 7.42529 36.4885 5.74913 34.0603C4.43756 32.1646 3.39764 30.2929 2.62939 28.4453C3.3024 29.9551 4.16644 31.482 5.22145 33.026C6.76395 35.2885 8.26361 37.0724 9.72041 38.3778L33.7578 62.0042C34.3577 62.5263 35.0432 62.7874 35.8145 62.7874C36.5857 62.7874 37.2713 62.5263 37.8711 62.0042L61.9085 38.3778C63.7081 36.6374 65.2935 34.7229 66.6646 32.6344C69.4068 28.5443 70.7779 24.5414 70.7779 20.6254C70.7779 14.882 69.1069 10.4003 65.7648 7.18054C62.5084 3.87372 57.9666 2.22031 52.1393 2.22031C51.5413 2.22031 50.9365 2.26181 50.3249 2.34482ZM37.736 8.93497C35.7192 7.12289 33.6705 5.59857 31.5899 4.36206C27.9583 2.1207 24.5128 1 21.2536 1C14.9214 1 9.93953 2.77441 6.30786 6.32327C5.1521 7.4519 4.18509 8.72498 3.40681 10.1425C4.05847 9.05862 4.83473 8.07129 5.73561 7.18054C9.07771 3.87372 13.6624 2.22031 19.4896 2.22031C22.4889 2.22031 25.6596 3.26456 29.0017 5.35309C31.3155 6.74542 33.5864 8.52939 35.8145 10.7049C36.4515 10.0829 37.092 9.49295 37.736 8.93497Z" fill="#EE4380"/>
<path fill-rule="evenodd" clip-rule="evenodd" d="M5.88887 6.74739C5.17905 9.69472 4.82413 13 4.82413 16.663C4.82413 22.4042 6.42993 28.3325 9.64154 34.4481C11.3418 37.693 12.9948 40.2516 14.6006 42.1237L19.5555 48.4604L10.6379 39.8039C9.05489 38.403 7.42528 36.4885 5.74911 34.0603C2.58304 29.4842 1 25.0481 1 20.7522C1 14.8366 2.62962 10.1684 5.88887 6.74739Z" fill="white"/>
</svg>
